{
    "properties": [
        {
            "modifiers": [
                "public"
            ], 
            "name": "retriveResourceLeftPaneWrapperobj", 
            "visibility": "PUBLIC", 
            "references": [], 
            "location": {
                "column": 45, 
                "line": 9
            }, 
            "type": "retriveResourceLeftPaneWrapper"
        }, 
        {
            "modifiers": [
                "public"
            ], 
            "name": "dataString", 
            "visibility": "PUBLIC", 
            "references": [], 
            "location": {
                "column": 15, 
                "line": 10
            }, 
            "type": "String"
        }, 
        {
            "modifiers": [
                "public"
            ], 
            "name": "Custset_Serviceprovider", 
            "visibility": "PUBLIC", 
            "references": [], 
            "location": {
                "column": 15, 
                "line": 11
            }, 
            "type": "String"
        }, 
        {
            "modifiers": [
                "public"
            ], 
            "name": "Custset_Customer", 
            "visibility": "PUBLIC", 
            "references": [], 
            "location": {
                "column": 15, 
                "line": 12
            }, 
            "type": "String"
        }, 
        {
            "modifiers": [
                "public"
            ], 
            "name": "Custset_Category", 
            "visibility": "PUBLIC", 
            "references": [], 
            "location": {
                "column": 15, 
                "line": 13
            }, 
            "type": "String"
        }, 
        {
            "modifiers": [
                "public"
            ], 
            "name": "Custset_Location", 
            "visibility": "PUBLIC", 
            "references": [], 
            "location": {
                "column": 15, 
                "line": 14
            }, 
            "type": "String"
        }, 
        {
            "modifiers": [
                "public"
            ], 
            "name": "Custset_Assistant", 
            "visibility": "PUBLIC", 
            "references": [], 
            "location": {
                "column": 15, 
                "line": 15
            }, 
            "type": "String"
        }, 
        {
            "modifiers": [
                "public"
            ], 
            "name": "Custset_ServiceproviderPlural", 
            "visibility": "PUBLIC", 
            "references": [], 
            "location": {
                "column": 15, 
                "line": 16
            }, 
            "type": "String"
        }, 
        {
            "modifiers": [
                "public"
            ], 
            "name": "Custset_CustomerPlural", 
            "visibility": "PUBLIC", 
            "references": [], 
            "location": {
                "column": 15, 
                "line": 17
            }, 
            "type": "String"
        }, 
        {
            "modifiers": [
                "public"
            ], 
            "name": "Custset_CategoryPlural", 
            "visibility": "PUBLIC", 
            "references": [], 
            "location": {
                "column": 15, 
                "line": 18
            }, 
            "type": "String"
        }, 
        {
            "modifiers": [
                "public"
            ], 
            "name": "Custset_LocationPlural", 
            "visibility": "PUBLIC", 
            "references": [], 
            "location": {
                "column": 15, 
                "line": 19
            }, 
            "type": "String"
        }, 
        {
            "modifiers": [
                "public"
            ], 
            "name": "Custset_AssistantPlural", 
            "visibility": "PUBLIC", 
            "references": [], 
            "location": {
                "column": 15, 
                "line": 20
            }, 
            "type": "String"
        }, 
        {
            "modifiers": [
                "public"
            ], 
            "name": "mainStartTime", 
            "visibility": "PUBLIC", 
            "references": [], 
            "location": {
                "column": 15, 
                "line": 21
            }, 
            "type": "String"
        }, 
        {
            "modifiers": [
                "public"
            ], 
            "name": "mainEndTime", 
            "visibility": "PUBLIC", 
            "references": [], 
            "location": {
                "column": 15, 
                "line": 22
            }, 
            "type": "String"
        }, 
        {
            "modifiers": [
                "public"
            ], 
            "name": "packageNamespace", 
            "visibility": "PUBLIC", 
            "references": [], 
            "location": {
                "column": 15, 
                "line": 23
            }, 
            "type": "String"
        }, 
        {
            "modifiers": [
                "static", 
                "public"
            ], 
            "name": "dateFormatStatic", 
            "visibility": "PUBLIC", 
            "references": [], 
            "location": {
                "column": 22, 
                "line": 27
            }, 
            "type": "String"
        }
    ], 
    "externalReferences": [], 
    "innerClasses": [
        {
            "properties": [
                {
                    "modifiers": [
                        "public"
                    ], 
                    "name": "EventId", 
                    "visibility": "PUBLIC", 
                    "references": [], 
                    "location": {
                        "column": 17, 
                        "line": 1135
                    }, 
                    "type": "Id"
                }, 
                {
                    "modifiers": [
                        "public"
                    ], 
                    "name": "Subject", 
                    "visibility": "PUBLIC", 
                    "references": [], 
                    "location": {
                        "column": 21, 
                        "line": 1136
                    }, 
                    "type": "String"
                }, 
                {
                    "modifiers": [
                        "public"
                    ], 
                    "name": "Description", 
                    "visibility": "PUBLIC", 
                    "references": [], 
                    "location": {
                        "column": 21, 
                        "line": 1137
                    }, 
                    "type": "String"
                }, 
                {
                    "modifiers": [
                        "public"
                    ], 
                    "name": "StartDateTime", 
                    "visibility": "PUBLIC", 
                    "references": [], 
                    "location": {
                        "column": 23, 
                        "line": 1138
                    }, 
                    "type": "Datetime"
                }, 
                {
                    "modifiers": [
                        "public"
                    ], 
                    "name": "EndDateTime", 
                    "visibility": "PUBLIC", 
                    "references": [], 
                    "location": {
                        "column": 23, 
                        "line": 1139
                    }, 
                    "type": "Datetime"
                }, 
                {
                    "modifiers": [
                        "public"
                    ], 
                    "name": "EventType", 
                    "visibility": "PUBLIC", 
                    "references": [], 
                    "location": {
                        "column": 21, 
                        "line": 1140
                    }, 
                    "type": "String"
                }, 
                {
                    "modifiers": [
                        "public"
                    ], 
                    "name": "PracName", 
                    "visibility": "PUBLIC", 
                    "references": [], 
                    "location": {
                        "column": 21, 
                        "line": 1141
                    }, 
                    "type": "String"
                }, 
                {
                    "modifiers": [
                        "public"
                    ], 
                    "name": "NoOfInstanceUsed", 
                    "visibility": "PUBLIC", 
                    "references": [], 
                    "location": {
                        "column": 22, 
                        "line": 1142
                    }, 
                    "type": "Integer"
                }, 
                {
                    "modifiers": [
                        "public"
                    ], 
                    "name": "isDraggable", 
                    "visibility": "PUBLIC", 
                    "references": [], 
                    "location": {
                        "column": 22, 
                        "line": 1143
                    }, 
                    "type": "Boolean"
                }, 
                {
                    "modifiers": [
                        "public"
                    ], 
                    "name": "resourceId", 
                    "visibility": "PUBLIC", 
                    "references": [], 
                    "location": {
                        "column": 17, 
                        "line": 1144
                    }, 
                    "type": "Id"
                }, 
                {
                    "modifiers": [
                        "public"
                    ], 
                    "name": "ResName", 
                    "visibility": "PUBLIC", 
                    "references": [], 
                    "location": {
                        "column": 21, 
                        "line": 1145
                    }, 
                    "type": "String"
                }, 
                {
                    "modifiers": [
                        "public"
                    ], 
                    "name": "ResourceColor", 
                    "visibility": "PUBLIC", 
                    "references": [], 
                    "location": {
                        "column": 21, 
                        "line": 1146
                    }, 
                    "type": "String"
                }, 
                {
                    "modifiers": [
                        "public"
                    ], 
                    "name": "mapresourcenameinstances", 
                    "visibility": "PUBLIC", 
                    "references": [], 
                    "location": {
                        "column": 33, 
                        "line": 1147
                    }, 
                    "type": "Map"
                }
            ], 
            "externalReferences": [], 
            "innerClasses": [], 
            "interfaces": [], 
            "constructors": [
                {
                    "modifiers": [
                        "public"
                    ], 
                    "name": "RescalAppointmentsWrapper", 
                    "parameters": [
                        {
                            "type": "LIST", 
                            "name": "ListActualresources"
                        }, 
                        {
                            "type": "Event", 
                            "name": "Ev"
                        }, 
                        {
                            "type": "LIST", 
                            "name": "ListSP"
                        }
                    ], 
                    "visibility": "PUBLIC", 
                    "references": [], 
                    "location": {
                        "column": 14, 
                        "line": 1149
                    }, 
                    "type": null
                }
            ], 
            "namespace": null, 
            "name": "RescalAppointmentsWrapper", 
            "tableDeclaration": {
                "type": "RescalAppointmentsWrapper", 
                "modifiers": [
                    "public"
                ], 
                "references": [], 
                "location": {
                    "column": 18, 
                    "line": 1132
                }, 
                "name": "RescalAppointmentsWrapper"
            }, 
            "key": null, 
            "variables": [
                {
                    "type": "LIST", 
                    "modifiers": [], 
                    "references": [], 
                    "location": {
                        "column": 80, 
                        "line": 1149
                    }, 
                    "name": "ListActualresources"
                }, 
                {
                    "type": "Event", 
                    "modifiers": [], 
                    "references": [], 
                    "location": {
                        "column": 106, 
                        "line": 1149
                    }, 
                    "name": "Ev"
                }, 
                {
                    "type": "LIST", 
                    "modifiers": [], 
                    "references": [], 
                    "location": {
                        "column": 123, 
                        "line": 1149
                    }, 
                    "name": "ListSP"
                }, 
                {
                    "type": "Actual_Resource_Booked_Mapping__c", 
                    "modifiers": [], 
                    "references": [], 
                    "location": {
                        "column": 53, 
                        "line": 1177
                    }, 
                    "name": "ActualResmap"
                }, 
                {
                    "type": "Contact", 
                    "modifiers": [], 
                    "references": [], 
                    "location": {
                        "column": 27, 
                        "line": 1191
                    }, 
                    "name": "con"
                }
            ], 
            "id": null, 
            "methods": []
        }
    ], 
    "interfaces": [], 
    "constructors": [
        {
            "modifiers": [
                "public"
            ], 
            "name": "ResourceAvailabilityController", 
            "parameters": [], 
            "visibility": "PUBLIC", 
            "references": [], 
            "location": {
                "column": 16, 
                "line": 48
            }, 
            "type": null
        }
    ], 
    "namespace": null, 
    "name": "ResourceAvailabilityController", 
    "tableDeclaration": {
        "type": "ResourceAvailabilityController", 
        "modifiers": [
            "public", 
            "with sharing"
        ], 
        "references": [], 
        "location": {
            "column": 27, 
            "line": 7
        }, 
        "name": "ResourceAvailabilityController"
    }, 
    "key": "01p280000066clqAAA", 
    "variables": [
        {
            "type": "EpracticeSettings__c", 
            "modifiers": [], 
            "references": [], 
            "location": {
                "column": 30, 
                "line": 55
            }, 
            "name": "MainstarttimeSetting"
        }, 
        {
            "type": "EpracticeSettings__c", 
            "modifiers": [], 
            "references": [], 
            "location": {
                "column": 34, 
                "line": 56
            }, 
            "name": "mainEndtimeSetting"
        }, 
        {
            "type": "Configuration_Labels__c", 
            "modifiers": [], 
            "references": [], 
            "location": {
                "column": 32, 
                "line": 59
            }, 
            "name": "LabelChangerSettingsCategory"
        }, 
        {
            "type": "Configuration_Labels__c", 
            "modifiers": [], 
            "references": [], 
            "location": {
                "column": 32, 
                "line": 60
            }, 
            "name": "LabelChangerSettingsLocation"
        }, 
        {
            "type": "Configuration_Labels__c", 
            "modifiers": [], 
            "references": [], 
            "location": {
                "column": 32, 
                "line": 61
            }, 
            "name": "LabelChangerSettingsServiceProvider"
        }, 
        {
            "type": "Configuration_Labels__c", 
            "modifiers": [], 
            "references": [], 
            "location": {
                "column": 32, 
                "line": 62
            }, 
            "name": "LabelChangerSettingsCustomer"
        }, 
        {
            "type": "Configuration_Labels__c", 
            "modifiers": [], 
            "references": [], 
            "location": {
                "column": 32, 
                "line": 63
            }, 
            "name": "LabelChangerSettingsAssistant"
        }, 
        {
            "type": "Configuration_Labels__c", 
            "modifiers": [], 
            "references": [], 
            "location": {
                "column": 32, 
                "line": 64
            }, 
            "name": "LabelChangerSettingsCategoryPlural"
        }, 
        {
            "type": "Configuration_Labels__c", 
            "modifiers": [], 
            "references": [], 
            "location": {
                "column": 32, 
                "line": 65
            }, 
            "name": "LabelChangerSettingsLocationPlural"
        }, 
        {
            "type": "Configuration_Labels__c", 
            "modifiers": [], 
            "references": [], 
            "location": {
                "column": 32, 
                "line": 66
            }, 
            "name": "LabelChangerSettingsServiceProviderPlural"
        }, 
        {
            "type": "Configuration_Labels__c", 
            "modifiers": [], 
            "references": [], 
            "location": {
                "column": 32, 
                "line": 67
            }, 
            "name": "LabelChangerSettingsCustomerPlural"
        }, 
        {
            "type": "Configuration_Labels__c", 
            "modifiers": [], 
            "references": [], 
            "location": {
                "column": 32, 
                "line": 68
            }, 
            "name": "LabelChangerSettingsAssistantPlural"
        }, 
        {
            "type": "String", 
            "modifiers": [], 
            "references": [], 
            "location": {
                "column": 24, 
                "line": 33
            }, 
            "name": "aFormat"
        }, 
        {
            "type": "String", 
            "modifiers": [], 
            "references": [], 
            "location": {
                "column": 82, 
                "line": 88
            }, 
            "name": "weekStart"
        }, 
        {
            "type": "String", 
            "modifiers": [], 
            "references": [], 
            "location": {
                "column": 100, 
                "line": 88
            }, 
            "name": "weekEnd"
        }, 
        {
            "type": "LIST", 
            "modifiers": [], 
            "references": [], 
            "location": {
                "column": 121, 
                "line": 88
            }, 
            "name": "ListresourceIds"
        }, 
        {
            "type": "LIST", 
            "modifiers": [], 
            "references": [], 
            "location": {
                "column": 24, 
                "line": 90
            }, 
            "name": "allWeekEvents"
        }, 
        {
            "type": "LIST", 
            "modifiers": [], 
            "references": [], 
            "location": {
                "column": 52, 
                "line": 91
            }, 
            "name": "ListActualresources"
        }, 
        {
            "type": "LIST", 
            "modifiers": [], 
            "references": [], 
            "location": {
                "column": 44, 
                "line": 92
            }, 
            "name": "Listreswrap"
        }, 
        {
            "type": "Set", 
            "modifiers": [], 
            "references": [], 
            "location": {
                "column": 20, 
                "line": 93
            }, 
            "name": "setResIds"
        }, 
        {
            "type": "String", 
            "modifiers": [], 
            "references": [], 
            "location": {
                "column": 23, 
                "line": 94
            }, 
            "name": "Str"
        }, 
        {
            "type": "Date", 
            "modifiers": [], 
            "references": [], 
            "location": {
                "column": 17, 
                "line": 99
            }, 
            "name": "startDate"
        }, 
        {
            "type": "Date", 
            "modifiers": [], 
            "references": [], 
            "location": {
                "column": 17, 
                "line": 100
            }, 
            "name": "endDate"
        }, 
        {
            "type": "Integer", 
            "modifiers": [], 
            "references": [], 
            "location": {
                "column": 22, 
                "line": 103
            }, 
            "name": "day"
        }, 
        {
            "type": "Integer", 
            "modifiers": [], 
            "references": [], 
            "location": {
                "column": 26, 
                "line": 103
            }, 
            "name": "month"
        }, 
        {
            "type": "Integer", 
            "modifiers": [], 
            "references": [], 
            "location": {
                "column": 32, 
                "line": 103
            }, 
            "name": "year"
        }, 
        {
            "type": "LIST", 
            "modifiers": [], 
            "references": [], 
            "location": {
                "column": 26, 
                "line": 104
            }, 
            "name": "tempStr"
        }, 
        {
            "type": "Set", 
            "modifiers": [], 
            "references": [], 
            "location": {
                "column": 21, 
                "line": 133
            }, 
            "name": "Setbookedids"
        }, 
        {
            "type": "Actual_Resource_Booked_Mapping__c", 
            "modifiers": [], 
            "references": [], 
            "location": {
                "column": 51, 
                "line": 138
            }, 
            "name": "Arbook"
        }, 
        {
            "type": "String", 
            "modifiers": [], 
            "references": [], 
            "location": {
                "column": 18, 
                "line": 148
            }, 
            "name": "condition"
        }, 
        {
            "type": "LIST", 
            "modifiers": [], 
            "references": [], 
            "location": {
                "column": 25, 
                "line": 149
            }, 
            "name": "ListSP"
        }, 
        {
            "type": "Event", 
            "modifiers": [], 
            "references": [], 
            "location": {
                "column": 21, 
                "line": 151
            }, 
            "name": "ev"
        }, 
        {
            "type": "RescalAppointmentsWrapper", 
            "modifiers": [], 
            "references": [], 
            "location": {
                "column": 39, 
                "line": 153
            }, 
            "name": "resappwrap"
        }, 
        {
            "type": "String", 
            "modifiers": [], 
            "references": [], 
            "location": {
                "column": 83, 
                "line": 170
            }, 
            "name": "weekStart"
        }, 
        {
            "type": "String", 
            "modifiers": [], 
            "references": [], 
            "location": {
                "column": 100, 
                "line": 170
            }, 
            "name": "weekEnd"
        }, 
        {
            "type": "LIST", 
            "modifiers": [], 
            "references": [], 
            "location": {
                "column": 121, 
                "line": 170
            }, 
            "name": "ListresourceIds"
        }, 
        {
            "type": "String", 
            "modifiers": [], 
            "references": [], 
            "location": {
                "column": 20, 
                "line": 172
            }, 
            "name": "finalcal"
        }, 
        {
            "type": "Set", 
            "modifiers": [], 
            "references": [], 
            "location": {
                "column": 21, 
                "line": 173
            }, 
            "name": "setResIds"
        }, 
        {
            "type": "String", 
            "modifiers": [], 
            "references": [], 
            "location": {
                "column": 23, 
                "line": 174
            }, 
            "name": "Str"
        }, 
        {
            "type": "Map", 
            "modifiers": [], 
            "references": [], 
            "location": {
                "column": 42, 
                "line": 179
            }, 
            "name": "Rescalendar"
        }, 
        {
            "type": "Integer", 
            "modifiers": [], 
            "references": [], 
            "location": {
                "column": 29, 
                "line": 185
            }, 
            "name": "itr"
        }, 
        {
            "type": "availableMatrix", 
            "modifiers": [], 
            "references": [], 
            "location": {
                "column": 37, 
                "line": 187
            }, 
            "name": "availableMatrixObj"
        }, 
        {
            "type": "Integer", 
            "modifiers": [], 
            "references": [], 
            "location": {
                "column": 29, 
                "line": 188
            }, 
            "name": "index"
        }, 
        {
            "type": "Integer", 
            "modifiers": [], 
            "references": [], 
            "location": {
                "column": 33, 
                "line": 190
            }, 
            "name": "i"
        }, 
        {
            "type": "String", 
            "modifiers": [], 
            "references": [], 
            "location": {
                "column": 63, 
                "line": 218
            }, 
            "name": "appointmentDate"
        }, 
        {
            "type": "String", 
            "modifiers": [], 
            "references": [], 
            "location": {
                "column": 86, 
                "line": 218
            }, 
            "name": "startTime"
        }, 
        {
            "type": "String", 
            "modifiers": [], 
            "references": [], 
            "location": {
                "column": 103, 
                "line": 218
            }, 
            "name": "endTime"
        }, 
        {
            "type": "String", 
            "modifiers": [], 
            "references": [], 
            "location": {
                "column": 118, 
                "line": 218
            }, 
            "name": "eventId"
        }, 
        {
            "type": "String", 
            "modifiers": [], 
            "references": [], 
            "location": {
                "column": 133, 
                "line": 218
            }, 
            "name": "comments"
        }, 
        {
            "type": "Map", 
            "modifiers": [], 
            "references": [], 
            "location": {
                "column": 43, 
                "line": 220
            }, 
            "name": "Rescalendar"
        }, 
        {
            "type": "Boolean", 
            "modifiers": [], 
            "references": [], 
            "location": {
                "column": 22, 
                "line": 221
            }, 
            "name": "isbookingallowed"
        }, 
        {
            "type": "Boolean", 
            "modifiers": [], 
            "references": [], 
            "location": {
                "column": 22, 
                "line": 222
            }, 
            "name": "isPastAppointment"
        }, 
        {
            "type": "Datetime", 
            "modifiers": [], 
            "references": [], 
            "location": {
                "column": 23, 
                "line": 223
            }, 
            "name": "StrDateTime"
        }, 
        {
            "type": "Datetime", 
            "modifiers": [], 
            "references": [], 
            "location": {
                "column": 23, 
                "line": 224
            }, 
            "name": "EnDateTime"
        }, 
        {
            "type": "Date", 
            "modifiers": [], 
            "references": [], 
            "location": {
                "column": 19, 
                "line": 225
            }, 
            "name": "startDate"
        }, 
        {
            "type": "Time", 
            "modifiers": [], 
            "references": [], 
            "location": {
                "column": 19, 
                "line": 226
            }, 
            "name": "StTime"
        }, 
        {
            "type": "Time", 
            "modifiers": [], 
            "references": [], 
            "location": {
                "column": 19, 
                "line": 227
            }, 
            "name": "EnTime"
        }, 
        {
            "type": "Integer", 
            "modifiers": [], 
            "references": [], 
            "location": {
                "column": 22, 
                "line": 228
            }, 
            "name": "day"
        }, 
        {
            "type": "Integer", 
            "modifiers": [], 
            "references": [], 
            "location": {
                "column": 26, 
                "line": 228
            }, 
            "name": "month"
        }, 
        {
            "type": "Integer", 
            "modifiers": [], 
            "references": [], 
            "location": {
                "column": 32, 
                "line": 228
            }, 
            "name": "year"
        }, 
        {
            "type": "Integer", 
            "modifiers": [], 
            "references": [], 
            "location": {
                "column": 37, 
                "line": 228
            }, 
            "name": "hour"
        }, 
        {
            "type": "Integer", 
            "modifiers": [], 
            "references": [], 
            "location": {
                "column": 42, 
                "line": 228
            }, 
            "name": "minutes"
        }, 
        {
            "type": "Event", 
            "modifiers": [], 
            "references": [], 
            "location": {
                "column": 23, 
                "line": 231
            }, 
            "name": "EventtoUpdate"
        }, 
        {
            "type": "Booked_Resources__c", 
            "modifiers": [], 
            "references": [], 
            "location": {
                "column": 37, 
                "line": 232
            }, 
            "name": "BookedRes"
        }, 
        {
            "type": "Actual_Resource_Booked_Mapping__c", 
            "modifiers": [], 
            "references": [], 
            "location": {
                "column": 51, 
                "line": 233
            }, 
            "name": "ActualBookedRes"
        }, 
        {
            "type": "LIST", 
            "modifiers": [], 
            "references": [], 
            "location": {
                "column": 34, 
                "line": 249
            }, 
            "name": "tempStr"
        }, 
        {
            "type": "Set", 
            "modifiers": [], 
            "references": [], 
            "location": {
                "column": 29, 
                "line": 294
            }, 
            "name": "setResIds"
        }, 
        {
            "type": "String", 
            "modifiers": [], 
            "references": [], 
            "location": {
                "column": 61, 
                "line": 335
            }, 
            "name": "appointmentDate"
        }, 
        {
            "type": "String", 
            "modifiers": [], 
            "references": [], 
            "location": {
                "column": 84, 
                "line": 335
            }, 
            "name": "startTime"
        }, 
        {
            "type": "String", 
            "modifiers": [], 
            "references": [], 
            "location": {
                "column": 101, 
                "line": 335
            }, 
            "name": "endTime"
        }, 
        {
            "type": "String", 
            "modifiers": [], 
            "references": [], 
            "location": {
                "column": 116, 
                "line": 335
            }, 
            "name": "resourceId"
        }, 
        {
            "type": "String", 
            "modifiers": [], 
            "references": [], 
            "location": {
                "column": 134, 
                "line": 335
            }, 
            "name": "comments"
        }, 
        {
            "type": "String", 
            "modifiers": [], 
            "references": [], 
            "location": {
                "column": 150, 
                "line": 335
            }, 
            "name": "recirringTime"
        }, 
        {
            "type": "String", 
            "modifiers": [], 
            "references": [], 
            "location": {
                "column": 171, 
                "line": 335
            }, 
            "name": "recurringTimePeriod"
        }, 
        {
            "type": "Boolean", 
            "modifiers": [], 
            "references": [], 
            "location": {
                "column": 20, 
                "line": 337
            }, 
            "name": "isPastAppointment"
        }, 
        {
            "type": "Map", 
            "modifiers": [], 
            "references": [], 
            "location": {
                "column": 41, 
                "line": 338
            }, 
            "name": "Rescalendar"
        }, 
        {
            "type": "Boolean", 
            "modifiers": [], 
            "references": [], 
            "location": {
                "column": 20, 
                "line": 339
            }, 
            "name": "isbookingallowed"
        }, 
        {
            "type": "Booked_Resources__c", 
            "modifiers": [], 
            "references": [], 
            "location": {
                "column": 32, 
                "line": 341
            }, 
            "name": "bookres"
        }, 
        {
            "type": "Actual_Resource_Booked_Mapping__c", 
            "modifiers": [], 
            "references": [], 
            "location": {
                "column": 46, 
                "line": 342
            }, 
            "name": "ActualbookedRes"
        }, 
        {
            "type": "Event", 
            "modifiers": [], 
            "references": [], 
            "location": {
                "column": 18, 
                "line": 343
            }, 
            "name": "EvforSingleResource"
        }, 
        {
            "type": "Datetime", 
            "modifiers": [], 
            "references": [], 
            "location": {
                "column": 21, 
                "line": 344
            }, 
            "name": "StrDateTime"
        }, 
        {
            "type": "Datetime", 
            "modifiers": [], 
            "references": [], 
            "location": {
                "column": 21, 
                "line": 345
            }, 
            "name": "EnDateTime"
        }, 
        {
            "type": "Date", 
            "modifiers": [], 
            "references": [], 
            "location": {
                "column": 17, 
                "line": 346
            }, 
            "name": "startDate"
        }, 
        {
            "type": "Time", 
            "modifiers": [], 
            "references": [], 
            "location": {
                "column": 17, 
                "line": 347
            }, 
            "name": "StTime"
        }, 
        {
            "type": "Time", 
            "modifiers": [], 
            "references": [], 
            "location": {
                "column": 17, 
                "line": 348
            }, 
            "name": "EnTime"
        }, 
        {
            "type": "Integer", 
            "modifiers": [], 
            "references": [], 
            "location": {
                "column": 29, 
                "line": 351
            }, 
            "name": "day"
        }, 
        {
            "type": "Integer", 
            "modifiers": [], 
            "references": [], 
            "location": {
                "column": 33, 
                "line": 351
            }, 
            "name": "month"
        }, 
        {
            "type": "Integer", 
            "modifiers": [], 
            "references": [], 
            "location": {
                "column": 39, 
                "line": 351
            }, 
            "name": "year"
        }, 
        {
            "type": "Integer", 
            "modifiers": [], 
            "references": [], 
            "location": {
                "column": 44, 
                "line": 351
            }, 
            "name": "hour"
        }, 
        {
            "type": "Integer", 
            "modifiers": [], 
            "references": [], 
            "location": {
                "column": 49, 
                "line": 351
            }, 
            "name": "minutes"
        }, 
        {
            "type": "LIST", 
            "modifiers": [], 
            "references": [], 
            "location": {
                "column": 34, 
                "line": 352
            }, 
            "name": "tempStr"
        }, 
        {
            "type": "Set", 
            "modifiers": [], 
            "references": [], 
            "location": {
                "column": 29, 
                "line": 388
            }, 
            "name": "Setids"
        }, 
        {
            "type": "Resources__c", 
            "modifiers": [], 
            "references": [], 
            "location": {
                "column": 34, 
                "line": 405
            }, 
            "name": "Restocheck"
        }, 
        {
            "type": "LIST", 
            "modifiers": [], 
            "references": [], 
            "location": {
                "column": 56, 
                "line": 406
            }, 
            "name": "listlocmap"
        }, 
        {
            "type": "Resources__c", 
            "modifiers": [], 
            "references": [], 
            "location": {
                "column": 42, 
                "line": 419
            }, 
            "name": "RestoBook"
        }, 
        {
            "type": "Integer", 
            "modifiers": [], 
            "references": [], 
            "location": {
                "column": 33, 
                "line": 460
            }, 
            "name": "recurringCode"
        }, 
        {
            "type": "Integer", 
            "modifiers": [], 
            "references": [], 
            "location": {
                "column": 37, 
                "line": 463
            }, 
            "name": "recurringCount"
        }, 
        {
            "type": "Integer", 
            "modifiers": [], 
            "references": [], 
            "location": {
                "column": 37, 
                "line": 471
            }, 
            "name": "recurringCount"
        }, 
        {
            "type": "Integer", 
            "modifiers": [], 
            "references": [], 
            "location": {
                "column": 37, 
                "line": 478
            }, 
            "name": "recurringCount"
        }, 
        {
            "type": "String", 
            "modifiers": [], 
            "references": [], 
            "location": {
                "column": 32, 
                "line": 482
            }, 
            "name": "msg"
        }, 
        {
            "type": "Id", 
            "modifiers": [], 
            "references": [], 
            "location": {
                "column": 47, 
                "line": 499
            }, 
            "name": "evId"
        }, 
        {
            "type": "Boolean", 
            "modifiers": [], 
            "references": [], 
            "location": {
                "column": 19, 
                "line": 501
            }, 
            "name": "isdeleted"
        }, 
        {
            "type": "Event", 
            "modifiers": [], 
            "references": [], 
            "location": {
                "column": 19, 
                "line": 504
            }, 
            "name": "OriginalEvent"
        }, 
        {
            "type": "LIST", 
            "modifiers": [], 
            "references": [], 
            "location": {
                "column": 39, 
                "line": 505
            }, 
            "name": "lst"
        }, 
        {
            "type": "LIST", 
            "modifiers": [], 
            "references": [], 
            "location": {
                "column": 29, 
                "line": 519
            }, 
            "name": "ListRecurringEvents"
        }, 
        {
            "type": "Map", 
            "modifiers": [], 
            "references": [], 
            "location": {
                "column": 100, 
                "line": 562
            }, 
            "name": "Resourcecalendar"
        }, 
        {
            "type": "Integer", 
            "modifiers": [], 
            "references": [], 
            "location": {
                "column": 21, 
                "line": 564
            }, 
            "name": "itr"
        }, 
        {
            "type": "availableMatrix", 
            "modifiers": [], 
            "references": [], 
            "location": {
                "column": 29, 
                "line": 566
            }, 
            "name": "availableMatrixObj"
        }, 
        {
            "type": "String", 
            "modifiers": [], 
            "references": [], 
            "location": {
                "column": 64, 
                "line": 579
            }, 
            "name": "startTime"
        }, 
        {
            "type": "String", 
            "modifiers": [], 
            "references": [], 
            "location": {
                "column": 81, 
                "line": 579
            }, 
            "name": "EndTime"
        }, 
        {
            "type": "Map", 
            "modifiers": [], 
            "references": [], 
            "location": {
                "column": 118, 
                "line": 579
            }, 
            "name": "Rescal"
        }, 
        {
            "type": "Boolean", 
            "modifiers": [], 
            "references": [], 
            "location": {
                "column": 17, 
                "line": 581
            }, 
            "name": "returnValue"
        }, 
        {
            "type": "Integer", 
            "modifiers": [], 
            "references": [], 
            "location": {
                "column": 22, 
                "line": 582
            }, 
            "name": "itr"
        }, 
        {
            "type": "availableMatrix", 
            "modifiers": [], 
            "references": [], 
            "location": {
                "column": 29, 
                "line": 584
            }, 
            "name": "tempMap"
        }, 
        {
            "type": "Integer", 
            "modifiers": [], 
            "references": [], 
            "location": {
                "column": 21, 
                "line": 585
            }, 
            "name": "index"
        }, 
        {
            "type": "Integer", 
            "modifiers": [], 
            "references": [], 
            "location": {
                "column": 25, 
                "line": 586
            }, 
            "name": "i"
        }, 
        {
            "type": "Integer", 
            "modifiers": [], 
            "references": [], 
            "location": {
                "column": 79, 
                "line": 609
            }, 
            "name": "StrDayinWeek"
        }, 
        {
            "type": "Integer", 
            "modifiers": [], 
            "references": [], 
            "location": {
                "column": 100, 
                "line": 609
            }, 
            "name": "EndDayinWeek"
        }, 
        {
            "type": "String", 
            "modifiers": [], 
            "references": [], 
            "location": {
                "column": 120, 
                "line": 609
            }, 
            "name": "weekStart"
        }, 
        {
            "type": "String", 
            "modifiers": [], 
            "references": [], 
            "location": {
                "column": 137, 
                "line": 609
            }, 
            "name": "weekEnd"
        }, 
        {
            "type": "Boolean", 
            "modifiers": [], 
            "references": [], 
            "location": {
                "column": 153, 
                "line": 609
            }, 
            "name": "Isprocess"
        }, 
        {
            "type": "Set", 
            "modifiers": [], 
            "references": [], 
            "location": {
                "column": 171, 
                "line": 609
            }, 
            "name": "SetresourceId"
        }, 
        {
            "type": "String", 
            "modifiers": [], 
            "references": [], 
            "location": {
                "column": 192, 
                "line": 609
            }, 
            "name": "EventId"
        }, 
        {
            "type": "Boolean", 
            "modifiers": [], 
            "references": [], 
            "location": {
                "column": 208, 
                "line": 609
            }, 
            "name": "isinitialfetch"
        }, 
        {
            "type": "LIST", 
            "modifiers": [], 
            "references": [], 
            "location": {
                "column": 21, 
                "line": 611
            }, 
            "name": "ListofEventsWithRes"
        }, 
        {
            "type": "Map", 
            "modifiers": [], 
            "references": [], 
            "location": {
                "column": 38, 
                "line": 612
            }, 
            "name": "Rescalendar"
        }, 
        {
            "type": "nonServiceProviderCalendar", 
            "modifiers": [], 
            "references": [], 
            "location": {
                "column": 36, 
                "line": 615
            }, 
            "name": "nonserv"
        }, 
        {
            "type": "fetchCalendarUtils", 
            "modifiers": [], 
            "references": [], 
            "location": {
                "column": 28, 
                "line": 616
            }, 
            "name": "fetchCalendarObject"
        }, 
        {
            "type": "Event", 
            "modifiers": [], 
            "references": [], 
            "location": {
                "column": 23, 
                "line": 624
            }, 
            "name": "ev"
        }, 
        {
            "type": "Integer", 
            "modifiers": [], 
            "references": [], 
            "location": {
                "column": 29, 
                "line": 626
            }, 
            "name": "weekDay"
        }, 
        {
            "type": "availableMatrix", 
            "modifiers": [], 
            "references": [], 
            "location": {
                "column": 41, 
                "line": 629
            }, 
            "name": "availableMatrixObj"
        }, 
        {
            "type": "Integer", 
            "modifiers": [], 
            "references": [], 
            "location": {
                "column": 33, 
                "line": 630
            }, 
            "name": "STime"
        }, 
        {
            "type": "Integer", 
            "modifiers": [], 
            "references": [], 
            "location": {
                "column": 33, 
                "line": 631
            }, 
            "name": "ETime"
        }, 
        {
            "type": "String", 
            "modifiers": [], 
            "references": [], 
            "location": {
                "column": 55, 
                "line": 648
            }, 
            "name": "resourceId"
        }, 
        {
            "type": "Set", 
            "modifiers": [], 
            "references": [], 
            "location": {
                "column": 74, 
                "line": 648
            }, 
            "name": "resourceIds"
        }, 
        {
            "type": "String", 
            "modifiers": [], 
            "references": [], 
            "location": {
                "column": 93, 
                "line": 648
            }, 
            "name": "comments"
        }, 
        {
            "type": "Date", 
            "modifiers": [], 
            "references": [], 
            "location": {
                "column": 107, 
                "line": 648
            }, 
            "name": "StrDate"
        }, 
        {
            "type": "Time", 
            "modifiers": [], 
            "references": [], 
            "location": {
                "column": 120, 
                "line": 648
            }, 
            "name": "STime"
        }, 
        {
            "type": "Time", 
            "modifiers": [], 
            "references": [], 
            "location": {
                "column": 131, 
                "line": 648
            }, 
            "name": "Etime"
        }, 
        {
            "type": "String", 
            "modifiers": [], 
            "references": [], 
            "location": {
                "column": 144, 
                "line": 648
            }, 
            "name": "bookStartTime"
        }, 
        {
            "type": "String", 
            "modifiers": [], 
            "references": [], 
            "location": {
                "column": 165, 
                "line": 648
            }, 
            "name": "bookEndTime"
        }, 
        {
            "type": "String", 
            "modifiers": [], 
            "references": [], 
            "location": {
                "column": 184, 
                "line": 648
            }, 
            "name": "recirringTime"
        }, 
        {
            "type": "Integer", 
            "modifiers": [], 
            "references": [], 
            "location": {
                "column": 206, 
                "line": 648
            }, 
            "name": "recurringCode"
        }, 
        {
            "type": "String", 
            "modifiers": [], 
            "references": [], 
            "location": {
                "column": 16, 
                "line": 651
            }, 
            "name": "returnMessage"
        }, 
        {
            "type": "Boolean", 
            "modifiers": [], 
            "references": [], 
            "location": {
                "column": 17, 
                "line": 652
            }, 
            "name": "checkForInsertion"
        }, 
        {
            "type": "Datetime", 
            "modifiers": [], 
            "references": [], 
            "location": {
                "column": 18, 
                "line": 653
            }, 
            "name": "recStrDateTime"
        }, 
        {
            "type": "Date", 
            "modifiers": [], 
            "references": [], 
            "location": {
                "column": 14, 
                "line": 654
            }, 
            "name": "recurringStartDate"
        }, 
        {
            "type": "Date", 
            "modifiers": [], 
            "references": [], 
            "location": {
                "column": 14, 
                "line": 655
            }, 
            "name": "recurringEndDate"
        }, 
        {
            "type": "Date", 
            "modifiers": [], 
            "references": [], 
            "location": {
                "column": 32, 
                "line": 655
            }, 
            "name": "maxPossibleEndDate"
        }, 
        {
            "type": "Date", 
            "modifiers": [], 
            "references": [], 
            "location": {
                "column": 51, 
                "line": 655
            }, 
            "name": "finalEndDate"
        }, 
        {
            "type": "LIST", 
            "modifiers": [], 
            "references": [], 
            "location": {
                "column": 20, 
                "line": 656
            }, 
            "name": "recurringListDate"
        }, 
        {
            "type": "Integer", 
            "modifiers": [], 
            "references": [], 
            "location": {
                "column": 17, 
                "line": 657
            }, 
            "name": "startTime"
        }, 
        {
            "type": "Integer", 
            "modifiers": [], 
            "references": [], 
            "location": {
                "column": 17, 
                "line": 658
            }, 
            "name": "endTime"
        }, 
        {
            "type": "Integer", 
            "modifiers": [], 
            "references": [], 
            "location": {
                "column": 23, 
                "line": 668
            }, 
            "name": "recurringCount"
        }, 
        {
            "type": "Date", 
            "modifiers": [], 
            "references": [], 
            "location": {
                "column": 20, 
                "line": 670
            }, 
            "name": "det"
        }, 
        {
            "type": "Integer", 
            "modifiers": [], 
            "references": [], 
            "location": {
                "column": 23, 
                "line": 681
            }, 
            "name": "recurringCount"
        }, 
        {
            "type": "Date", 
            "modifiers": [], 
            "references": [], 
            "location": {
                "column": 20, 
                "line": 684
            }, 
            "name": "det"
        }, 
        {
            "type": "Integer", 
            "modifiers": [], 
            "references": [], 
            "location": {
                "column": 27, 
                "line": 688
            }, 
            "name": "monthCode"
        }, 
        {
            "type": "LIST", 
            "modifiers": [], 
            "references": [], 
            "location": {
                "column": 24, 
                "line": 700
            }, 
            "name": "AllrecursiveEvents"
        }, 
        {
            "type": "Date", 
            "modifiers": [], 
            "references": [], 
            "location": {
                "column": 18, 
                "line": 702
            }, 
            "name": "startDate"
        }, 
        {
            "type": "Date", 
            "modifiers": [], 
            "references": [], 
            "location": {
                "column": 18, 
                "line": 703
            }, 
            "name": "endDate"
        }, 
        {
            "type": "Boolean", 
            "modifiers": [], 
            "references": [], 
            "location": {
                "column": 21, 
                "line": 708
            }, 
            "name": "loopExecutedOnce"
        }, 
        {
            "type": "Resources__c", 
            "modifiers": [], 
            "references": [], 
            "location": {
                "column": 26, 
                "line": 709
            }, 
            "name": "Restocheck"
        }, 
        {
            "type": "LIST", 
            "modifiers": [], 
            "references": [], 
            "location": {
                "column": 48, 
                "line": 710
            }, 
            "name": "listlocmap"
        }, 
        {
            "type": "Time", 
            "modifiers": [], 
            "references": [], 
            "location": {
                "column": 28, 
                "line": 730
            }, 
            "name": "tym"
        }, 
        {
            "type": "Datetime", 
            "modifiers": [], 
            "references": [], 
            "location": {
                "column": 32, 
                "line": 731
            }, 
            "name": "startDateTime"
        }, 
        {
            "type": "Datetime", 
            "modifiers": [], 
            "references": [], 
            "location": {
                "column": 32, 
                "line": 732
            }, 
            "name": "endDateTime"
        }, 
        {
            "type": "Map", 
            "modifiers": [], 
            "references": [], 
            "location": {
                "column": 52, 
                "line": 733
            }, 
            "name": "Rescalendar"
        }, 
        {
            "type": "LIST", 
            "modifiers": [], 
            "references": [], 
            "location": {
                "column": 35, 
                "line": 734
            }, 
            "name": "allWeekEvents"
        }, 
        {
            "type": "nonServiceProviderCalendar", 
            "modifiers": [], 
            "references": [], 
            "location": {
                "column": 50, 
                "line": 735
            }, 
            "name": "nonserv"
        }, 
        {
            "type": "fetchCalendarUtils", 
            "modifiers": [], 
            "references": [], 
            "location": {
                "column": 42, 
                "line": 736
            }, 
            "name": "fetchCalendarObject"
        }, 
        {
            "type": "Event", 
            "modifiers": [], 
            "references": [], 
            "location": {
                "column": 29, 
                "line": 740
            }, 
            "name": "ev"
        }, 
        {
            "type": "Integer", 
            "modifiers": [], 
            "references": [], 
            "location": {
                "column": 33, 
                "line": 742
            }, 
            "name": "weekDay"
        }, 
        {
            "type": "availableMatrix", 
            "modifiers": [], 
            "references": [], 
            "location": {
                "column": 45, 
                "line": 745
            }, 
            "name": "availableMatrixObj"
        }, 
        {
            "type": "Integer", 
            "modifiers": [], 
            "references": [], 
            "location": {
                "column": 37, 
                "line": 746
            }, 
            "name": "evSTime"
        }, 
        {
            "type": "Integer", 
            "modifiers": [], 
            "references": [], 
            "location": {
                "column": 37, 
                "line": 747
            }, 
            "name": "evETime"
        }, 
        {
            "type": "Integer", 
            "modifiers": [], 
            "references": [], 
            "location": {
                "column": 33, 
                "line": 751
            }, 
            "name": "isAllResourcesAvailable"
        }, 
        {
            "type": "Datetime", 
            "modifiers": [], 
            "references": [], 
            "location": {
                "column": 36, 
                "line": 773
            }, 
            "name": "Dt"
        }, 
        {
            "type": "Integer", 
            "modifiers": [], 
            "references": [], 
            "location": {
                "column": 35, 
                "line": 774
            }, 
            "name": "dayCode"
        }, 
        {
            "type": "Integer", 
            "modifiers": [], 
            "references": [], 
            "location": {
                "column": 35, 
                "line": 775
            }, 
            "name": "additionValue"
        }, 
        {
            "type": "Integer", 
            "modifiers": [], 
            "references": [], 
            "location": {
                "column": 27, 
                "line": 806
            }, 
            "name": "itr"
        }, 
        {
            "type": "Date", 
            "modifiers": [], 
            "references": [], 
            "location": {
                "column": 28, 
                "line": 807
            }, 
            "name": "appointmentDate"
        }, 
        {
            "type": "Time", 
            "modifiers": [], 
            "references": [], 
            "location": {
                "column": 26, 
                "line": 809
            }, 
            "name": "tym"
        }, 
        {
            "type": "Datetime", 
            "modifiers": [], 
            "references": [], 
            "location": {
                "column": 30, 
                "line": 810
            }, 
            "name": "startDateTime"
        }, 
        {
            "type": "Map", 
            "modifiers": [], 
            "references": [], 
            "location": {
                "column": 50, 
                "line": 811
            }, 
            "name": "Rescalendar"
        }, 
        {
            "type": "nonServiceProviderCalendar", 
            "modifiers": [], 
            "references": [], 
            "location": {
                "column": 48, 
                "line": 812
            }, 
            "name": "nonserv"
        }, 
        {
            "type": "fetchCalendarUtils", 
            "modifiers": [], 
            "references": [], 
            "location": {
                "column": 40, 
                "line": 813
            }, 
            "name": "fetchCalendarObject"
        }, 
        {
            "type": "LIST", 
            "modifiers": [], 
            "references": [], 
            "location": {
                "column": 33, 
                "line": 815
            }, 
            "name": "allWeekEvents"
        }, 
        {
            "type": "Event", 
            "modifiers": [], 
            "references": [], 
            "location": {
                "column": 31, 
                "line": 818
            }, 
            "name": "ev"
        }, 
        {
            "type": "Integer", 
            "modifiers": [], 
            "references": [], 
            "location": {
                "column": 31, 
                "line": 820
            }, 
            "name": "weekDay"
        }, 
        {
            "type": "availableMatrix", 
            "modifiers": [], 
            "references": [], 
            "location": {
                "column": 43, 
                "line": 823
            }, 
            "name": "availableMatrixObj"
        }, 
        {
            "type": "Integer", 
            "modifiers": [], 
            "references": [], 
            "location": {
                "column": 35, 
                "line": 824
            }, 
            "name": "evSTime"
        }, 
        {
            "type": "Integer", 
            "modifiers": [], 
            "references": [], 
            "location": {
                "column": 35, 
                "line": 825
            }, 
            "name": "evETime"
        }, 
        {
            "type": "Integer", 
            "modifiers": [], 
            "references": [], 
            "location": {
                "column": 29, 
                "line": 829
            }, 
            "name": "isAllResourcesAvailable"
        }, 
        {
            "type": "String", 
            "modifiers": [], 
            "references": [], 
            "location": {
                "column": 54, 
                "line": 873
            }, 
            "name": "resourceId"
        }, 
        {
            "type": "Resources__c", 
            "modifiers": [], 
            "references": [], 
            "location": {
                "column": 78, 
                "line": 873
            }, 
            "name": "Restocheck"
        }, 
        {
            "type": "Datetime", 
            "modifiers": [], 
            "references": [], 
            "location": {
                "column": 98, 
                "line": 873
            }, 
            "name": "recStrDateTime"
        }, 
        {
            "type": "Date", 
            "modifiers": [], 
            "references": [], 
            "location": {
                "column": 118, 
                "line": 873
            }, 
            "name": "finalEndDate"
        }, 
        {
            "type": "Integer", 
            "modifiers": [], 
            "references": [], 
            "location": {
                "column": 139, 
                "line": 873
            }, 
            "name": "recurringCode"
        }, 
        {
            "type": "Integer", 
            "modifiers": [], 
            "references": [], 
            "location": {
                "column": 161, 
                "line": 873
            }, 
            "name": "startTime"
        }, 
        {
            "type": "Integer", 
            "modifiers": [], 
            "references": [], 
            "location": {
                "column": 179, 
                "line": 873
            }, 
            "name": "endTime"
        }, 
        {
            "type": "LIST", 
            "modifiers": [], 
            "references": [], 
            "location": {
                "column": 222, 
                "line": 873
            }, 
            "name": "listlocmap"
        }, 
        {
            "type": "String", 
            "modifiers": [], 
            "references": [], 
            "location": {
                "column": 240, 
                "line": 873
            }, 
            "name": "comments"
        }, 
        {
            "type": "String", 
            "modifiers": [], 
            "references": [], 
            "location": {
                "column": 14, 
                "line": 875
            }, 
            "name": "returnMessage"
        }, 
        {
            "type": "Booked_Resources__c", 
            "modifiers": [], 
            "references": [], 
            "location": {
                "column": 27, 
                "line": 876
            }, 
            "name": "bookres"
        }, 
        {
            "type": "Actual_Resource_Booked_Mapping__c", 
            "modifiers": [], 
            "references": [], 
            "location": {
                "column": 41, 
                "line": 877
            }, 
            "name": "ActualbookedRes"
        }, 
        {
            "type": "Event", 
            "modifiers": [], 
            "references": [], 
            "location": {
                "column": 25, 
                "line": 892
            }, 
            "name": "recurringResourceBooking"
        }, 
        {
            "type": "Set", 
            "modifiers": [], 
            "references": [], 
            "location": {
                "column": 66, 
                "line": 938
            }, 
            "name": "SetresId"
        }, 
        {
            "type": "Id", 
            "modifiers": [], 
            "references": [], 
            "location": {
                "column": 78, 
                "line": 938
            }, 
            "name": "EvID"
        }, 
        {
            "type": "Date", 
            "modifiers": [], 
            "references": [], 
            "location": {
                "column": 88, 
                "line": 938
            }, 
            "name": "StartDate"
        }, 
        {
            "type": "Date", 
            "modifiers": [], 
            "references": [], 
            "location": {
                "column": 103, 
                "line": 938
            }, 
            "name": "EndDate"
        }, 
        {
            "type": "LIST", 
            "modifiers": [], 
            "references": [], 
            "location": {
                "column": 21, 
                "line": 940
            }, 
            "name": "allWeekEvents"
        }, 
        {
            "type": "Set", 
            "modifiers": [], 
            "references": [], 
            "location": {
                "column": 21, 
                "line": 943
            }, 
            "name": "Setbookedids"
        }, 
        {
            "type": "LIST", 
            "modifiers": [], 
            "references": [], 
            "location": {
                "column": 53, 
                "line": 944
            }, 
            "name": "ListActualresources"
        }, 
        {
            "type": "Actual_Resource_Booked_Mapping__c", 
            "modifiers": [], 
            "references": [], 
            "location": {
                "column": 51, 
                "line": 949
            }, 
            "name": "Arbook"
        }, 
        {
            "type": "LIST", 
            "modifiers": [], 
            "references": [], 
            "location": {
                "column": 73, 
                "line": 978
            }, 
            "name": "AllrecursiveEvents"
        }, 
        {
            "type": "Date", 
            "modifiers": [], 
            "references": [], 
            "location": {
                "column": 97, 
                "line": 978
            }, 
            "name": "startDate"
        }, 
        {
            "type": "Date", 
            "modifiers": [], 
            "references": [], 
            "location": {
                "column": 113, 
                "line": 978
            }, 
            "name": "endDate"
        }, 
        {
            "type": "LIST", 
            "modifiers": [], 
            "references": [], 
            "location": {
                "column": 17, 
                "line": 980
            }, 
            "name": "lst"
        }, 
        {
            "type": "Event", 
            "modifiers": [], 
            "references": [], 
            "location": {
                "column": 15, 
                "line": 981
            }, 
            "name": "e"
        }, 
        {
            "type": "String", 
            "modifiers": [], 
            "references": [], 
            "location": {
                "column": 58, 
                "line": 991
            }, 
            "name": "startTime"
        }, 
        {
            "type": "String", 
            "modifiers": [], 
            "references": [], 
            "location": {
                "column": 75, 
                "line": 991
            }, 
            "name": "EndTime"
        }, 
        {
            "type": "Map", 
            "modifiers": [], 
            "references": [], 
            "location": {
                "column": 112, 
                "line": 991
            }, 
            "name": "Rescal"
        }, 
        {
            "type": "Integer", 
            "modifiers": [], 
            "references": [], 
            "location": {
                "column": 13, 
                "line": 993
            }, 
            "name": "itr"
        }, 
        {
            "type": "availableMatrix", 
            "modifiers": [], 
            "references": [], 
            "location": {
                "column": 25, 
                "line": 996
            }, 
            "name": "tempMap"
        }, 
        {
            "type": "Integer", 
            "modifiers": [], 
            "references": [], 
            "location": {
                "column": 17, 
                "line": 997
            }, 
            "name": "index"
        }, 
        {
            "type": "Integer", 
            "modifiers": [], 
            "references": [], 
            "location": {
                "column": 21, 
                "line": 998
            }, 
            "name": "i"
        }
    ], 
    "id": "01p280000066clqAAA", 
    "methods": [
        {
            "modifiers": [
                "static", 
                "public"
            ], 
            "name": "getSingleBookedResource", 
            "parameters": [
                {
                    "type": "String", 
                    "name": "weekStart"
                }, 
                {
                    "type": "String", 
                    "name": "weekEnd"
                }, 
                {
                    "type": "LIST", 
                    "name": "ListresourceIds"
                }
            ], 
            "visibility": "PUBLIC", 
            "references": [], 
            "location": {
                "column": 51, 
                "line": 88
            }, 
            "returnType": "LIST", 
            "type": null
        }, 
        {
            "modifiers": [
                "static", 
                "public"
            ], 
            "name": "getResourceAvailCalendar", 
            "parameters": [
                {
                    "type": "String", 
                    "name": "weekStart"
                }, 
                {
                    "type": "String", 
                    "name": "weekEnd"
                }, 
                {
                    "type": "LIST", 
                    "name": "ListresourceIds"
                }
            ], 
            "visibility": "PUBLIC", 
            "references": [], 
            "location": {
                "column": 51, 
                "line": 170
            }, 
            "returnType": "Map", 
            "type": null
        }, 
        {
            "modifiers": [
                "static", 
                "public"
            ], 
            "name": "UpdatebookedSingleResource", 
            "parameters": [
                {
                    "type": "String", 
                    "name": "appointmentDate"
                }, 
                {
                    "type": "String", 
                    "name": "startTime"
                }, 
                {
                    "type": "String", 
                    "name": "endTime"
                }, 
                {
                    "type": "String", 
                    "name": "eventId"
                }, 
                {
                    "type": "String", 
                    "name": "comments"
                }
            ], 
            "visibility": "PUBLIC", 
            "references": [], 
            "location": {
                "column": 29, 
                "line": 218
            }, 
            "returnType": "String", 
            "type": null
        }, 
        {
            "modifiers": [
                "static", 
                "public"
            ], 
            "name": "SavebookedSingleResource", 
            "parameters": [
                {
                    "type": "String", 
                    "name": "appointmentDate"
                }, 
                {
                    "type": "String", 
                    "name": "startTime"
                }, 
                {
                    "type": "String", 
                    "name": "endTime"
                }, 
                {
                    "type": "String", 
                    "name": "resourceId"
                }, 
                {
                    "type": "String", 
                    "name": "comments"
                }, 
                {
                    "type": "String", 
                    "name": "recirringTime"
                }, 
                {
                    "type": "String", 
                    "name": "recurringTimePeriod"
                }
            ], 
            "visibility": "PUBLIC", 
            "references": [], 
            "location": {
                "column": 29, 
                "line": 335
            }, 
            "returnType": "String", 
            "type": null
        }, 
        {
            "modifiers": [
                "static", 
                "public"
            ], 
            "name": "DeleteBooking", 
            "parameters": [
                {
                    "type": "Id", 
                    "name": "evId"
                }
            ], 
            "visibility": "PUBLIC", 
            "references": [], 
            "location": {
                "column": 30, 
                "line": 499
            }, 
            "returnType": "Boolean", 
            "type": null
        }, 
        {
            "modifiers": [
                "static", 
                "public"
            ], 
            "name": "initavailabilitymatrix", 
            "parameters": [
                {
                    "type": "Map", 
                    "name": "Resourcecalendar"
                }
            ], 
            "visibility": "PUBLIC", 
            "references": [], 
            "location": {
                "column": 48, 
                "line": 562
            }, 
            "returnType": "Map", 
            "type": null
        }, 
        {
            "modifiers": [
                "static", 
                "public"
            ], 
            "name": "isAllResourceBookingAvailable", 
            "parameters": [
                {
                    "type": "String", 
                    "name": "startTime"
                }, 
                {
                    "type": "String", 
                    "name": "EndTime"
                }, 
                {
                    "type": "Map", 
                    "name": "Rescal"
                }
            ], 
            "visibility": "PUBLIC", 
            "references": [], 
            "location": {
                "column": 27, 
                "line": 579
            }, 
            "returnType": "Boolean", 
            "type": null
        }, 
        {
            "modifiers": [
                "static", 
                "public"
            ], 
            "name": "createResourceCalendar", 
            "parameters": [
                {
                    "type": "Integer", 
                    "name": "StrDayinWeek"
                }, 
                {
                    "type": "Integer", 
                    "name": "EndDayinWeek"
                }, 
                {
                    "type": "String", 
                    "name": "weekStart"
                }, 
                {
                    "type": "String", 
                    "name": "weekEnd"
                }, 
                {
                    "type": "Boolean", 
                    "name": "Isprocess"
                }, 
                {
                    "type": "Set", 
                    "name": "SetresourceId"
                }, 
                {
                    "type": "String", 
                    "name": "EventId"
                }, 
                {
                    "type": "Boolean", 
                    "name": "isinitialfetch"
                }
            ], 
            "visibility": "PUBLIC", 
            "references": [], 
            "location": {
                "column": 48, 
                "line": 609
            }, 
            "returnType": "Map", 
            "type": null
        }, 
        {
            "modifiers": [
                "static", 
                "public"
            ], 
            "name": "saveRecurringBookings", 
            "parameters": [
                {
                    "type": "String", 
                    "name": "resourceId"
                }, 
                {
                    "type": "Set", 
                    "name": "resourceIds"
                }, 
                {
                    "type": "String", 
                    "name": "comments"
                }, 
                {
                    "type": "Date", 
                    "name": "StrDate"
                }, 
                {
                    "type": "Time", 
                    "name": "STime"
                }, 
                {
                    "type": "Time", 
                    "name": "Etime"
                }, 
                {
                    "type": "String", 
                    "name": "bookStartTime"
                }, 
                {
                    "type": "String", 
                    "name": "bookEndTime"
                }, 
                {
                    "type": "String", 
                    "name": "recirringTime"
                }, 
                {
                    "type": "Integer", 
                    "name": "recurringCode"
                }
            ], 
            "visibility": "PUBLIC", 
            "references": [], 
            "location": {
                "column": 26, 
                "line": 648
            }, 
            "returnType": "String", 
            "type": null
        }, 
        {
            "modifiers": [
                "static", 
                "public"
            ], 
            "name": "insertRecurringEvent", 
            "parameters": [
                {
                    "type": "String", 
                    "name": "resourceId"
                }, 
                {
                    "type": "Resources__c", 
                    "name": "Restocheck"
                }, 
                {
                    "type": "Datetime", 
                    "name": "recStrDateTime"
                }, 
                {
                    "type": "Date", 
                    "name": "finalEndDate"
                }, 
                {
                    "type": "Integer", 
                    "name": "recurringCode"
                }, 
                {
                    "type": "Integer", 
                    "name": "startTime"
                }, 
                {
                    "type": "Integer", 
                    "name": "endTime"
                }, 
                {
                    "type": "LIST", 
                    "name": "listlocmap"
                }, 
                {
                    "type": "String", 
                    "name": "comments"
                }
            ], 
            "visibility": "PUBLIC", 
            "references": [], 
            "location": {
                "column": 26, 
                "line": 873
            }, 
            "returnType": "String", 
            "type": null
        }, 
        {
            "modifiers": [
                "static", 
                "public"
            ], 
            "name": "getrecursiveResourceevents", 
            "parameters": [
                {
                    "type": "Set", 
                    "name": "SetresId"
                }, 
                {
                    "type": "Id", 
                    "name": "EvID"
                }, 
                {
                    "type": "Date", 
                    "name": "StartDate"
                }, 
                {
                    "type": "Date", 
                    "name": "EndDate"
                }
            ], 
            "visibility": "PUBLIC", 
            "references": [], 
            "location": {
                "column": 31, 
                "line": 938
            }, 
            "returnType": "LIST", 
            "type": null
        }, 
        {
            "modifiers": [
                "static", 
                "public"
            ], 
            "name": "getEventsForSpecificDateRantge", 
            "parameters": [
                {
                    "type": "LIST", 
                    "name": "AllrecursiveEvents"
                }, 
                {
                    "type": "Date", 
                    "name": "startDate"
                }, 
                {
                    "type": "Date", 
                    "name": "endDate"
                }
            ], 
            "visibility": "PUBLIC", 
            "references": [], 
            "location": {
                "column": 30, 
                "line": 978
            }, 
            "returnType": "LIST", 
            "type": null
        }, 
        {
            "modifiers": [
                "static", 
                "public"
            ], 
            "name": "getResourcesAvailableUpto", 
            "parameters": [
                {
                    "type": "String", 
                    "name": "startTime"
                }, 
                {
                    "type": "String", 
                    "name": "EndTime"
                }, 
                {
                    "type": "Map", 
                    "name": "Rescal"
                }
            ], 
            "visibility": "PUBLIC", 
            "references": [], 
            "location": {
                "column": 25, 
                "line": 991
            }, 
            "returnType": "Integer", 
            "type": null
        }
    ]
}