{
    "properties": [], 
    "externalReferences": [], 
    "innerClasses": [], 
    "interfaces": [
        "System.Schedulable"
    ], 
    "constructors": [], 
    "namespace": null, 
    "name": "workingTimeSlotScheduler", 
    "tableDeclaration": {
        "type": "workingTimeSlotScheduler", 
        "modifiers": [
            "global"
        ], 
        "references": [], 
        "location": {
            "column": 14, 
            "line": 1
        }, 
        "name": "workingTimeSlotScheduler"
    }, 
    "key": "01p280000066ZimAAE", 
    "variables": [
        {
            "type": "SchedulableContext", 
            "modifiers": [], 
            "references": [], 
            "location": {
                "column": 44, 
                "line": 2
            }, 
            "name": "SC"
        }, 
        {
            "type": "LIST", 
            "modifiers": [], 
            "references": [], 
            "location": {
                "column": 21, 
                "line": 4
            }, 
            "name": "availTimeSlots"
        }, 
        {
            "type": "LIST", 
            "modifiers": [], 
            "references": [], 
            "location": {
                "column": 23, 
                "line": 5
            }, 
            "name": "serviceProviderLst"
        }, 
        {
            "type": "User", 
            "modifiers": [], 
            "references": [], 
            "location": {
                "column": 14, 
                "line": 6
            }, 
            "name": "us"
        }, 
        {
            "type": "AvailabilityController", 
            "modifiers": [], 
            "references": [], 
            "location": {
                "column": 36, 
                "line": 13
            }, 
            "name": "availCntrOb"
        }, 
        {
            "type": "Contact", 
            "modifiers": [], 
            "references": [], 
            "location": {
                "column": 25, 
                "line": 17
            }, 
            "name": "ServiceProvider"
        }
    ], 
    "id": "01p280000066ZimAAE", 
    "methods": [
        {
            "modifiers": [
                "global"
            ], 
            "name": "execute", 
            "parameters": [
                {
                    "type": "SchedulableContext", 
                    "name": "SC"
                }
            ], 
            "visibility": "GLOBAL", 
            "references": [], 
            "location": {
                "column": 17, 
                "line": 2
            }, 
            "returnType": "void", 
            "type": null
        }
    ]
}